<?xml version="1.0"?>
<svg xmlns="http://www.w3.org/2000/svg" version="1.2" baseProfile="tiny" width="800" height="1542" viewBox="0 0 800 1542" stroke-linecap="round" stroke-linejoin="round">
<g id="ka">
<path d="M 243.001 868.1804 254.0541 892.8891 267.1365 906.3716 269.0679 912.5238 275.808 914.9292 281.1055 931.2764 281.5016 944.2634 276.2001 963.3817 264.7101 973.5901 263.8098 983.5442 253.7343 981.5157 242.2619 982.4452 225.2156 993.5194 221.2687 991.4601 209.2095 996.1325 198.9098 1005.877 188.8973 1007.5726 179.9874 1014.4843 118.2508 975.8908 123.749 969.6862 121.8194 960.5273 103.8661 952.1368 99.545 941.9961 84.4504 928.5219 62.6769 946.4454 49.9198 930.1886 40.1451 922.2982 33.243 908.6757 21.3871 899.2782 17.1827 888.6063 15.1569 877.1724 10.0387 875.1661 13.9783 872.2589 12.6914 865.0144 8.1317 862.0777 9.2177 853.2107 5.5427 845.2988 5.5281 834.7987 10.9484 823.7033 13.3401 814.2976 31.3396 791.4547 48.5338 776.8236 48.9227 732.1615 34.1963 726.3524 30.9646 696.2599 35.8183 691.3259 33.5543 681.1551 29.2259 642.4619 24.7678 582.8319 38.7543 583.3838 53.777 592.1966 68.9655 587.4733 97.0451 588.0307 102.5539 590.0362 94.6936 599.452 90.2006 613.2381 79.1129 629.4398 93.2232 633.5349 111.9195 651.0142 111.2959 667.2662 128.223 680.8381 156.1169 671.2475 182.5317 690.1867 189.2957 692.5338 188.9508 704.228 193.2861 709.2745 195.3964 721.2281 201.9507 729.0408 205.4569 738.5225 205.3416 753.6615 203.3916 763.9212 209.4776 771.9035 200.0744 805.8816 197.386 839.3452 243.001 868.1804 Z"/>
<g/>
<g/>
<g/>
<g/>
<path d="M 763.4347 1047.6159 769.5726 1087.3878 778.9906 1131.7667 788.1415 1171.6896 790.5392 1208.8649 798.9449 1221.0883 799 1330.5807 794.1293 1381.1675 777.5284 1413.6395 768.5804 1428.2971 748.1207 1441.1331 739.8792 1439.7658 725.8321 1454.221 715.3402 1492.1957 705.8658 1497.4234 699.7908 1506.9571 693.7093 1509.4049 688.1131 1515.86 694.7106 1532.315 684.2774 1541.2387 678.3188 1530.0344 678.0432 1524.3177 666.8414 1516.7263 658.3999 1508.5859 655.7445 1503.0246 647.4164 1498.8199 650.5068 1482.328 644.7703 1480.4565 643.5475 1468.6744 638.3786 1467.3201 637.2767 1454.9824 627.842 1453.2847 620.5739 1456.101 613.3387 1449.7276 600.5466 1443.7725 595.939 1431.0188 600.3203 1426.6653 624.3749 1428.3682 633.8994 1430.4764 650.4352 1422.6832 655.683 1410.5028 674.978 1400.2862 695.2891 1390.7803 701.8107 1366.5659 701.1568 1353.6756 716.172 1346.036 709.9252 1337.5483 695.5999 1333.539 699.0589 1329.0499 715.2822 1324.4657 723.2736 1314.5147 723.5306 1292.9962 718.6131 1286.1777 718.7244 1278.8842 707.8022 1266.3803 706.2787 1234.4588 726.2956 1200.7714 730.7666 1198.8679 722.013 1185.9151 721.0248 1173.4325 713.1891 1159.7083 692.248 1141.4907 689.906 1133.4209 694.7739 1133.2372 704.4337 1122.0492 706.4336 1107.4233 718.2681 1092.9603 716.3829 1081.7392 728.289 1072.9057 727.5163 1066.8728 738.3742 1057.3682 742.2308 1051.7543 747.7266 1055.0203 756.9652 1046.0337 763.4347 1047.6159 Z"/>
<g/>
<g/>
<g/>
<g/>
<g/>
<g/>
<g/>
<g/>
<g/>
<g/>
<g/>
<g/>
<g/>
<g/>
<g/>
<g/>
<g/>
<g/>
<g/>
<g/>
<g/>
<g/>
<g/>
<g/>
<g/>
<g/>
<g/>
<g/>
<g/>
<path d="M 561.9497 604.5293 554.3228 612.1732 540.8988 615.9813 523.0336 610.4281 498.888 619.5121 474.869 612.9804 445.3028 616.9691 434.7195 615.3964 375.4577 584.312 365.9115 578.277 361.0529 569.8282 351.516 565.1292 349.9351 553.1912 339.885 544.032 305.7323 527.7438 290.1465 527.4358 282.0387 528.9868 267.3486 527.2277 234.2344 525.2374 209.0801 520.9971 208.5764 496.8987 203.2038 492.9633 192.2699 493.2304 187.2688 500.5914 182.2986 500.4406 167.5688 494.8131 121.3894 467.5189 123.023 460.7374 111.7535 445.7156 111.2917 438.5439 103.4228 427.6643 93.5142 419.509 78.8275 413.1774 66.8039 399.8513 63.5411 383.5529 63.7815 368.6076 67.5218 360.3358 47.912 343.0593 1 258.3558 180.6756 75.979 255.1749 1 287.1926 30.4971 297.0271 49.3745 288.3508 61.6686 295.6592 76.1264 304.5789 80.8216 310.956 93.8062 308.807 107.0465 293.3478 111.8453 294.0012 121.611 305.8518 125.5034 318.5153 139.2638 334.0618 147.4805 326.1597 179.9799 310.8588 188.3545 309.245 201.2313 330.3923 195.3904 351.3957 196.6043 355.7354 191.3395 377.5287 190.7097 382.6263 206.1457 383.1355 217.4848 358.4566 217.1876 349.7773 228.5143 353.3581 234.0038 363.0675 236.7522 361.5358 249.7646 380.0895 242.6298 393.6482 242.79 404.853 261.9364 413.9025 271.3252 427.1581 281.5898 436.018 272.9942 451.2254 269.013 460.9988 269.1918 476.5132 285.0064 478.2466 291.6351 488.4198 293.984 506.554 300.5759 510.5396 304.2304 505.1107 335.5666 507.0226 354.7324 504.2411 386.0635 489.8888 399.7152 474.4659 401.6981 485.5022 421.7667 486.9395 431.0662 481.8484 439.2582 477.4923 440.8937 476.9138 464.7727 492.6728 479.7424 496.9983 498.7076 502.0581 511.84 506.6963 565.9883 509.048 570.1837 520.6473 575.1209 527.52 587.8912 536.7741 583.8924 554.8984 590.4813 561.9497 604.5293 Z"/>
<g/>
<g/>
<g/>
<g/>
<g/>
<g/>
<g/>
<g/>
<g/>
<g/>
<g/>
<g/>
<g/>
<g/>
<g/>
<g/>
<g/>
<g/>
<g/>
<g/>
<g/>
<g/>
<g/>
<path d="M 474.869 612.9804 448.4792 667.2215 412.534 710.4764 403.3817 786.2979 401.4962 808.9387 363.9889 798.8052 341.1619 791.4518 316.7088 793.741 299.3789 801.3574 286.9421 809.6783 254.1018 840.1465 252.0086 847.0631 254.2183 853.4682 243.001 868.1804 197.386 839.3452 200.0744 805.8816 209.4776 771.9035 203.3916 763.9212 205.3416 753.6615 205.4569 738.5225 201.9507 729.0408 195.3964 721.2281 193.2861 709.2745 188.9508 704.228 189.2957 692.5338 182.5317 690.1867 156.1169 671.2475 128.223 680.8381 111.2959 667.2662 111.9195 651.0142 93.2232 633.5349 79.1129 629.4398 90.2006 613.2381 94.6936 599.452 102.5539 590.0362 97.0451 588.0307 68.9655 587.4733 53.777 592.1966 38.7543 583.3838 24.7678 582.8319 22.0737 553.0992 19.9396 511.1809 31.2255 511.9793 37.2381 516.1953 44.1802 512.91 54.6468 520.7196 61.9563 522.8328 63.5013 527.4448 71.8649 531.201 93.3933 532.5952 98.6219 521.1371 114.7917 504.8721 116.6342 493.5965 115.6704 480.8321 120.7882 474.7869 121.3894 467.5189 167.5688 494.8131 182.2986 500.4406 187.2688 500.5914 192.2699 493.2304 203.2038 492.9633 208.5764 496.8987 209.0801 520.9971 234.2344 525.2374 267.3486 527.2277 282.0387 528.9868 290.1465 527.4358 305.7323 527.7438 339.885 544.032 349.9351 553.1912 351.516 565.1292 361.0529 569.8282 365.9115 578.277 375.4577 584.312 434.7195 615.3964 445.3028 616.9691 474.869 612.9804 Z"/>
<g/>
<g/>
<g/>
<g/>
<g/>
<g/>
<g/>
<g/>
<g/>
<g/>
<g/>
<g/>
<g/>
<g/>
<g/>
<g/>
<g/>
<g/>
<g/>
<g/>
<path d="M 763.4347 1047.6159 756.9652 1046.0337 747.7266 1055.0203 742.2308 1051.7543 738.3742 1057.3682 727.5163 1066.8728 728.289 1072.9057 716.3829 1081.7392 718.2681 1092.9603 706.4336 1107.4233 704.4337 1122.0492 694.7739 1133.2372 689.906 1133.4209 690.0719 1123.3628 677.1014 1102.3613 657.8028 1085.7038 643.1226 1079.8242 641.1105 1070.9676 633.3603 1056.8295 624.8307 1047.7417 624.6932 1039.6109 612.5795 1025.2245 606.5257 1012.686 602.4188 967.1795 588.0751 963.2909 578.7279 964.0957 575.7187 973.972 569.4448 964.0875 569.6369 951.1798 532.5042 898.3259 520.4805 895.8345 516.5644 891.9051 456.804 806.4345 455.6018 778.5546 451.0987 770.7139 449.6431 758.3055 441.6995 746.6862 440.1927 739.6698 430.1336 732.969 429.3656 728.3094 412.534 710.4764 448.4792 667.2215 474.869 612.9804 498.888 619.5121 523.0336 610.4281 540.8988 615.9813 554.3228 612.1732 561.9497 604.5293 569.1231 614.7208 570.4926 626.8125 569.3603 636.9188 571.4181 652.8049 577.2235 661.7604 577.974 673.4188 583.4843 704.2651 605.1029 713.9038 612.4093 734.9408 620.7738 737.3232 633.6184 737.4587 638.5058 729.6463 643.9981 736.1774 657.2307 741.6954 664.0895 757.1845 667.2542 755.9751 673.6868 765.2274 678.194 777.7841 682.5564 795.3042 682.7122 802.0067 678.2109 826.0749 686.51 834.3728 690.9822 848.6581 708.3967 867.4303 712.1145 876.3817 719.4452 887.4654 728.072 894.4424 733.4972 893.4694 734.6669 884.3264 743.6796 885.0829 752.1063 923.4466 762.8822 923.7928 764.8815 932.4061 773.9232 955.1227 767.7294 958.0954 762.5049 969.4565 754.2526 973.7134 752.8319 984.4829 754.6808 991.367 763.4347 1047.6159 Z"/>
<g/>
<g/>
<g/>
<g/>
<path d="M 689.906 1133.4209 692.248 1141.4907 713.1891 1159.7083 721.0248 1173.4325 722.013 1185.9151 730.7666 1198.8679 726.2956 1200.7714 706.2787 1234.4588 707.8022 1266.3803 718.7244 1278.8842 718.6131 1286.1777 723.5306 1292.9962 723.2736 1314.5147 715.2822 1324.4657 699.0589 1329.0499 695.5999 1333.539 709.9252 1337.5483 716.172 1346.036 701.1568 1353.6756 701.8107 1366.5659 695.2891 1390.7803 674.978 1400.2862 655.683 1410.5028 650.4352 1422.6832 633.8994 1430.4764 624.3749 1428.3682 600.3203 1426.6653 595.939 1431.0188 581.1099 1425.9363 577.6409 1422.1546 570.387 1425.3646 555.9051 1418.0918 554.2113 1415.2441 524.0354 1415.1293 521.0498 1421.7626 515.5421 1420.6608 506.3066 1429.053 495.991 1430.1387 489.9218 1438.4946 479.9131 1438.9007 472.9046 1434.2909 458.2711 1434.7621 448.0153 1431.5639 437.5476 1440.6073 422.095 1438.5476 407.2389 1442.6823 401.0644 1434.8524 384.6463 1434.9252 384.6136 1425.3694 384.3424 1392.7426 380.6961 1392.6869 380.9243 1335.3377 380.5882 1305.441 381.6801 1263.6092 395.559 1257.9692 427.2859 1240.0429 477.5299 1202.028 490.9186 1191.2362 497.51 1178.7823 509.3812 1163.5743 520.4347 1137.7136 532.6969 1115.2548 535.8865 1100.7974 575.7187 973.972 578.7279 964.0957 588.0751 963.2909 602.4188 967.1795 606.5257 1012.686 612.5795 1025.2245 624.6932 1039.6109 624.8307 1047.7417 633.3603 1056.8295 641.1105 1070.9676 643.1226 1079.8242 657.8028 1085.7038 677.1014 1102.3613 690.0719 1123.3628 689.906 1133.4209 Z"/>
<g/>
<g/>
<g/>
<g/>
<path d="M 575.7187 973.972 535.8865 1100.7974 532.6969 1115.2548 520.4347 1137.7136 509.3812 1163.5743 497.51 1178.7823 490.9186 1191.2362 477.5299 1202.028 427.2859 1240.0429 395.559 1257.9692 381.6801 1263.6092 382.2027 1225.5516 381.5549 1208.0962 378.755 1196.6292 377.7052 1165.1337 374.6859 1135.4292 282.5496 1078.6164 212.6166 1034.8869 179.9874 1014.4843 188.8973 1007.5726 198.9098 1005.877 209.2095 996.1325 221.2687 991.4601 225.2156 993.5194 242.2619 982.4452 253.7343 981.5157 263.8098 983.5442 264.7101 973.5901 276.2001 963.3817 281.5016 944.2634 281.1055 931.2764 275.808 914.9292 269.0679 912.5238 267.1365 906.3716 254.0541 892.8891 243.001 868.1804 254.2183 853.4682 252.0086 847.0631 254.1018 840.1465 286.9421 809.6783 299.3789 801.3574 316.7088 793.741 341.1619 791.4518 363.9889 798.8052 401.4962 808.9387 403.3817 786.2979 412.534 710.4764 429.3656 728.3094 430.1336 732.969 440.1927 739.6698 441.6995 746.6862 449.6431 758.3055 451.0987 770.7139 455.6018 778.5546 456.804 806.4345 516.5644 891.9051 520.4805 895.8345 532.5042 898.3259 569.6369 951.1798 569.4448 964.0875 575.7187 973.972 Z"/>
</g>
</svg>