{
  "files": {
    "static/js/0.a966f196.chunk.js": "./static/js/0.a966f196.chunk.js",
    "static/js/0.a966f196.chunk.js.map": "./static/js/0.a966f196.chunk.js.map",
    "static/js/1.6e069d3c.chunk.js": "./static/js/1.6e069d3c.chunk.js",
    "static/js/1.6e069d3c.chunk.js.map": "./static/js/1.6e069d3c.chunk.js.map",
    "main.css": "./static/css/main.b3909f3e.chunk.css",
    "main.js": "./static/js/main.ecc05a78.chunk.js",
    "main.js.map": "./static/js/main.ecc05a78.chunk.js.map",
    "runtime-main.js": "./static/js/runtime-main.317776e4.js",
    "runtime-main.js.map": "./static/js/runtime-main.317776e4.js.map",
    "static/js/4.0208333a.chunk.js": "./static/js/4.0208333a.chunk.js",
    "static/js/4.0208333a.chunk.js.map": "./static/js/4.0208333a.chunk.js.map",
    "static/js/5.a2df9fed.chunk.js": "./static/js/5.a2df9fed.chunk.js",
    "static/js/5.a2df9fed.chunk.js.map": "./static/js/5.a2df9fed.chunk.js.map",
    "static/js/6.3e0e2110.chunk.js": "./static/js/6.3e0e2110.chunk.js",
    "static/js/6.3e0e2110.chunk.js.map": "./static/js/6.3e0e2110.chunk.js.map",
    "static/js/7.ca877a1e.chunk.js": "./static/js/7.ca877a1e.chunk.js",
    "static/js/7.ca877a1e.chunk.js.map": "./static/js/7.ca877a1e.chunk.js.map",
    "static/js/8.11c6f1b5.chunk.js": "./static/js/8.11c6f1b5.chunk.js",
    "static/js/8.11c6f1b5.chunk.js.map": "./static/js/8.11c6f1b5.chunk.js.map",
    "static/js/9.6f0abd0b.chunk.js": "./static/js/9.6f0abd0b.chunk.js",
    "static/js/9.6f0abd0b.chunk.js.map": "./static/js/9.6f0abd0b.chunk.js.map",
    "static/js/10.372136df.chunk.js": "./static/js/10.372136df.chunk.js",
    "static/js/10.372136df.chunk.js.map": "./static/js/10.372136df.chunk.js.map",
    "index.html": "./index.html",
    "precache-manifest.0d40e9b1a3b535dababc09e04cb5e9c9.js": "./precache-manifest.0d40e9b1a3b535dababc09e04cb5e9c9.js",
    "service-worker.js": "./service-worker.js",
    "static/css/main.b3909f3e.chunk.css.map": "./static/css/main.b3909f3e.chunk.css.map",
    "static/js/4.0208333a.chunk.js.LICENSE.txt": "./static/js/4.0208333a.chunk.js.LICENSE.txt",
    "static/media/AlphaS1.png": "./static/media/AlphaS1.ba9d3f99.png",
    "static/media/AlphaS2a.png": "./static/media/AlphaS2a.f6cd4ee0.png",
    "static/media/Dialog.png": "./static/media/Dialog.69a411ab.png",
    "static/media/Popover.png": "./static/media/Popover.b4a8a3d1.png",
    "static/media/acf.png": "./static/media/acf.6583838e.png",
    "static/media/chene.geo.0c3e25d4.svg": "./static/media/chene.geo.0c3e25d4.svg",
    "static/media/johns-hopkins.png": "./static/media/johns-hopkins.79d5fd74.png",
    "static/media/karamoja.geo.f447cee5.svg": "./static/media/karamoja.geo.f447cee5.svg",
    "static/media/ukaid.png": "./static/media/ukaid.e7e5b156.png",
    "static/media/umd.png": "./static/media/umd.a6cd8cff.png",
    "static/media/west-pokot.geo.31e383c7.svg": "./static/media/west-pokot.geo.31e383c7.svg"
  },
  "entrypoints": [
    "static/js/runtime-main.317776e4.js",
    "static/js/4.0208333a.chunk.js",
    "static/css/main.b3909f3e.chunk.css",
    "static/js/main.ecc05a78.chunk.js"
  ]
}